{
  "request": {
    "method": "GET",
    "urlPathPattern": "/api/users",
    "queryParameters": {
      "page": {
        "matches": ".*"
      }
    }
  },
  "response": {
    "status": 200,
    "headers": {
      "Content-Type": "application/json"
    },
    "jsonBody": {
      "page": 1,
      "per_page": 6,
      "total": 12,
      "total_pages": 2,
      "data": [
        { "id": 1, "email": "george.bluth@reqres.in", "first_name": "George", "last_name": "Bluth" },
        { "id": 2, "email": "janet.weaver@reqres.in", "first_name": "Janet", "last_name": "Weaver" }
      ]
    }
  }
}
